Library\Bee\artifacts\mvdfrm\Unity.2D.Animation.Editor.ref.dll_7684A0691EFAE0C5.mvfrm
Library\Bee\artifacts\mvdfrm\Unity.2D.Animation.Runtime.ref.dll_4F6FC3113C736696.mvfrm
Library\Bee\artifacts\mvdfrm\Unity.2D.Common.Editor.ref.dll_4C20894B5CB48E48.mvfrm
Library\Bee\artifacts\mvdfrm\Unity.2D.Common.Runtime.ref.dll_F7575DE93DDA2363.mvfrm
Library\Bee\artifacts\mvdfrm\Unity.2D.IK.Editor.ref.dll_3536AAE3BA6951E1.mvfrm
Library\Bee\artifacts\mvdfrm\Unity.2D.IK.Runtime.ref.dll_8F5077191B7C25BA.mvfrm
Library\Bee\artifacts\mvdfrm\Unity.2D.Path.Editor.ref.dll_FDE000065FED94DE.mvfrm
Library\Bee\artifacts\mvdfrm\Unity.2D.PixelPerfect.Editor.ref.dll_F4FF2C57B2C1727C.mvfrm
Library\Bee\artifacts\mvdfrm\Unity.2D.PixelPerfect.ref.dll_938343FF3C89A485.mvfrm
Library\Bee\artifacts\mvdfrm\Unity.2D.Psdimporter.Editor.ref.dll_6E5E97B80336F196.mvfrm
Library\Bee\artifacts\mvdfrm\Unity.2D.Sprite.Editor.ref.dll_6C8185F9E5AE014E.mvfrm
Library\Bee\artifacts\mvdfrm\Unity.2D.SpriteShape.Editor.ref.dll_D1E2945540037DAD.mvfrm
Library\Bee\artifacts\mvdfrm\Unity.2D.SpriteShape.Runtime.ref.dll_61D32A7E920E672E.mvfrm
Library\Bee\artifacts\mvdfrm\Unity.2D.Tilemap.Editor.ref.dll_C349DCD839D8880B.mvfrm
Library\Bee\artifacts\mvdfrm\Unity.2D.Tilemap.Extras.Editor.ref.dll_4442349F8547BCD0.mvfrm
Library\Bee\artifacts\mvdfrm\Unity.2D.Tilemap.Extras.ref.dll_B6FC041F98ADC4F1.mvfrm
Library\Bee\artifacts\mvdfrm\Unity.Burst.Editor.ref.dll_222C82CECB47A66F.mvfrm
Library\Bee\artifacts\mvdfrm\Unity.Burst.ref.dll_3835BB91EC2C0D62.mvfrm
Library\Bee\artifacts\mvdfrm\Unity.InputSystem.ref.dll_7B1D397D2193763B.mvfrm
Library\Bee\artifacts\mvdfrm\Unity.InternalAPIEditorBridge.001.ref.dll_25F89DC3AAE256B8.mvfrm
Library\Bee\artifacts\mvdfrm\Unity.InternalAPIEngineBridge.001.ref.dll_1873566E0FF13DFD.mvfrm
Library\Bee\artifacts\mvdfrm\Unity.Mathematics.Editor.ref.dll_553CFFCCE7430329.mvfrm
Library\Bee\artifacts\mvdfrm\Unity.Mathematics.ref.dll_66DE4C1C9A03AD08.mvfrm
Library\Bee\artifacts\mvdfrm\Unity.PlasticSCM.Editor.ref.dll_A558B9E65539D7D0.mvfrm
Library\Bee\artifacts\mvdfrm\Unity.RenderPipeline.Universal.ShaderLibrary.ref.dll_D7DD283915E480F1.mvfrm
Library\Bee\artifacts\mvdfrm\Unity.RenderPipelines.Core.Editor.ref.dll_AA6E4515E60A494B.mvfrm
Library\Bee\artifacts\mvdfrm\Unity.RenderPipelines.Core.Runtime.ref.dll_CA4A63933BEF3AB0.mvfrm
Library\Bee\artifacts\mvdfrm\Unity.RenderPipelines.Core.ShaderLibrary.ref.dll_38159DB35CC29EFE.mvfrm
Library\Bee\artifacts\mvdfrm\Unity.RenderPipelines.ShaderGraph.ShaderGraphLibrary.ref.dll_DF61AD73468C057E.mvfrm
Library\Bee\artifacts\mvdfrm\Unity.RenderPipelines.Universal.Editor.ref.dll_ECAA9E877BE61FD7.mvfrm
Library\Bee\artifacts\mvdfrm\Unity.RenderPipelines.Universal.Runtime.ref.dll_9692FC5A7F88C564.mvfrm
Library\Bee\artifacts\mvdfrm\Unity.RenderPipelines.Universal.Shaders.ref.dll_D6FB0BA3BDF7609A.mvfrm
Library\Bee\artifacts\mvdfrm\Unity.Rider.Editor.ref.dll_DA88E6A3E9EB6155.mvfrm
Library\Bee\artifacts\mvdfrm\Unity.Searcher.Editor.ref.dll_1D712DD21DFFF248.mvfrm
Library\Bee\artifacts\mvdfrm\Unity.ShaderGraph.Editor.ref.dll_CA6C4521A25CEDB6.mvfrm
Library\Bee\artifacts\mvdfrm\Unity.TextMeshPro.Editor.ref.dll_D0BA3615D322EF6C.mvfrm
Library\Bee\artifacts\mvdfrm\Unity.TextMeshPro.ref.dll_02929A3ECA791895.mvfrm
Library\Bee\artifacts\mvdfrm\Unity.Timeline.Editor.ref.dll_17F688653313AA4C.mvfrm
Library\Bee\artifacts\mvdfrm\Unity.Timeline.ref.dll_16F8EA6B67022FB5.mvfrm
Library\Bee\artifacts\mvdfrm\Unity.VSCode.Editor.ref.dll_AE868214B5ED3D13.mvfrm
Library\Bee\artifacts\mvdfrm\Unity.VisualScripting.Core.Editor.ref.dll_514B12BC0D1D8DB7.mvfrm
Library\Bee\artifacts\mvdfrm\Unity.VisualScripting.Core.ref.dll_BF8650D11F8E519A.mvfrm
Library\Bee\artifacts\mvdfrm\Unity.VisualScripting.Flow.Editor.ref.dll_CE7BFB6B1BFC18F8.mvfrm
Library\Bee\artifacts\mvdfrm\Unity.VisualScripting.Flow.ref.dll_06973127A197C649.mvfrm
Library\Bee\artifacts\mvdfrm\Unity.VisualScripting.SettingsProvider.Editor.ref.dll_EE1755C0672F8EE2.mvfrm
Library\Bee\artifacts\mvdfrm\Unity.VisualScripting.Shared.Editor.ref.dll_6CA31C4FA5286AB1.mvfrm
Library\Bee\artifacts\mvdfrm\Unity.VisualScripting.State.Editor.ref.dll_DC1879B0E64A8F15.mvfrm
Library\Bee\artifacts\mvdfrm\Unity.VisualScripting.State.ref.dll_900B338E31D9525C.mvfrm
Library\Bee\artifacts\mvdfrm\Unity.VisualStudio.Editor.ref.dll_0FE027DDD6F41767.mvfrm
Library\Bee\artifacts\mvdfrm\UnityEditor.UI.ref.dll_0174E068A5FA251B.mvfrm
Library\Bee\artifacts\mvdfrm\UnityEngine.UI.ref.dll_BDDAB6C3AC1C4D86.mvfrm
Library\Bee\artifacts\mvdfrm\UnityEditor.CoreModule.dll_C6269DFEE66A7A91.mvfrm
Library\Bee\artifacts\mvdfrm\UnityEditor.DeviceSimulatorModule.dll_E7F2941AD24E6F00.mvfrm
Library\Bee\artifacts\mvdfrm\UnityEditor.DiagnosticsModule.dll_89B5FECFA70AE14E.mvfrm
Library\Bee\artifacts\mvdfrm\UnityEditor.dll_C0F174526829CA34.mvfrm
Library\Bee\artifacts\mvdfrm\UnityEditor.GraphViewModule.dll_C7CB933CD175E765.mvfrm
Library\Bee\artifacts\mvdfrm\UnityEditor.PackageManagerUIModule.dll_E831F95CB949ACAD.mvfrm
Library\Bee\artifacts\mvdfrm\UnityEditor.QuickSearchModule.dll_14C57FDCFFE1DDA7.mvfrm
Library\Bee\artifacts\mvdfrm\UnityEditor.SceneTemplateModule.dll_9500607E595F6708.mvfrm
Library\Bee\artifacts\mvdfrm\UnityEditor.TextCoreFontEngineModule.dll_A0BA5B502CFC54EF.mvfrm
Library\Bee\artifacts\mvdfrm\UnityEditor.TextCoreTextEngineModule.dll_E8A291C1BC800E0D.mvfrm
Library\Bee\artifacts\mvdfrm\UnityEditor.UIBuilderModule.dll_1C544059442E6099.mvfrm
Library\Bee\artifacts\mvdfrm\UnityEditor.UIElementsModule.dll_C48CD4E20831DA2D.mvfrm
Library\Bee\artifacts\mvdfrm\UnityEditor.UIElementsSamplesModule.dll_E9CE926E242E6910.mvfrm
Library\Bee\artifacts\mvdfrm\UnityEditor.UIServiceModule.dll_554651BC2D65B0B3.mvfrm
Library\Bee\artifacts\mvdfrm\UnityEditor.UnityConnectModule.dll_856B25C671C371C7.mvfrm
Library\Bee\artifacts\mvdfrm\UnityEngine.AccessibilityModule.dll_C7A5CC1559D58EA5.mvfrm
Library\Bee\artifacts\mvdfrm\UnityEngine.AIModule.dll_5289733CA71F20C5.mvfrm
Library\Bee\artifacts\mvdfrm\UnityEngine.AndroidJNIModule.dll_42D5BDB551514903.mvfrm
Library\Bee\artifacts\mvdfrm\UnityEngine.AnimationModule.dll_96510F65ABD2BC0B.mvfrm
Library\Bee\artifacts\mvdfrm\UnityEngine.ARModule.dll_0BFC3840043C7F8E.mvfrm
Library\Bee\artifacts\mvdfrm\UnityEngine.AssetBundleModule.dll_58AEB2CE62489299.mvfrm
Library\Bee\artifacts\mvdfrm\UnityEngine.AudioModule.dll_88AD5CC0F4D9A23D.mvfrm
Library\Bee\artifacts\mvdfrm\UnityEngine.ClothModule.dll_EF95B9BBCEF68121.mvfrm
Library\Bee\artifacts\mvdfrm\UnityEngine.CoreModule.dll_E94771518E6FE5BC.mvfrm
Library\Bee\artifacts\mvdfrm\UnityEngine.CrashReportingModule.dll_7BF2E3D497FD66D4.mvfrm
Library\Bee\artifacts\mvdfrm\UnityEngine.DirectorModule.dll_F41FFEC7CC77C2D9.mvfrm
Library\Bee\artifacts\mvdfrm\UnityEngine.dll_F395BB2AC69D5719.mvfrm
Library\Bee\artifacts\mvdfrm\UnityEngine.DSPGraphModule.dll_F97160313ED893FA.mvfrm
Library\Bee\artifacts\mvdfrm\UnityEngine.GameCenterModule.dll_6D2307D0179239F4.mvfrm
Library\Bee\artifacts\mvdfrm\UnityEngine.GIModule.dll_EAC5BC4A42CE08DF.mvfrm
Library\Bee\artifacts\mvdfrm\UnityEngine.GridModule.dll_C6B88D3FA6C47BB3.mvfrm
Library\Bee\artifacts\mvdfrm\UnityEngine.HotReloadModule.dll_1799CD6B8705D78D.mvfrm
Library\Bee\artifacts\mvdfrm\UnityEngine.ImageConversionModule.dll_5991543CC42E3478.mvfrm
Library\Bee\artifacts\mvdfrm\UnityEngine.IMGUIModule.dll_C10CFC27BB0B361E.mvfrm
Library\Bee\artifacts\mvdfrm\UnityEngine.InputLegacyModule.dll_E9F3CDECFA3A488A.mvfrm
Library\Bee\artifacts\mvdfrm\UnityEngine.InputModule.dll_EF2324716B11C6E1.mvfrm
Library\Bee\artifacts\mvdfrm\UnityEngine.JSONSerializeModule.dll_27BD55515910EF2F.mvfrm
Library\Bee\artifacts\mvdfrm\UnityEngine.LocalizationModule.dll_4354652EBAC73786.mvfrm
Library\Bee\artifacts\mvdfrm\UnityEngine.ParticleSystemModule.dll_CF052D21060EF262.mvfrm
Library\Bee\artifacts\mvdfrm\UnityEngine.PerformanceReportingModule.dll_B02859471EE4367B.mvfrm
Library\Bee\artifacts\mvdfrm\UnityEngine.Physics2DModule.dll_E2F6FF564CCFB3A0.mvfrm
Library\Bee\artifacts\mvdfrm\UnityEngine.PhysicsModule.dll_A7C8B8AF087BA6AE.mvfrm
Library\Bee\artifacts\mvdfrm\UnityEngine.ProfilerModule.dll_266637FE65D149E6.mvfrm
Library\Bee\artifacts\mvdfrm\UnityEngine.RuntimeInitializeOnLoadManagerInitializerModule.dll_5BFE233F367C6469.mvfrm
Library\Bee\artifacts\mvdfrm\UnityEngine.ScreenCaptureModule.dll_41A502D66D7D1B91.mvfrm
Library\Bee\artifacts\mvdfrm\UnityEngine.SharedInternalsModule.dll_DDA293123B5C2FC8.mvfrm
Library\Bee\artifacts\mvdfrm\UnityEngine.SpriteMaskModule.dll_564F7A603901CF6E.mvfrm
Library\Bee\artifacts\mvdfrm\UnityEngine.SpriteShapeModule.dll_720FE02917EACAA3.mvfrm
Library\Bee\artifacts\mvdfrm\UnityEngine.StreamingModule.dll_4AE5FCB5FB5A7349.mvfrm
Library\Bee\artifacts\mvdfrm\UnityEngine.SubstanceModule.dll_279110FF46AD7157.mvfrm
Library\Bee\artifacts\mvdfrm\UnityEngine.SubsystemsModule.dll_C0FCE0C20749B781.mvfrm
Library\Bee\artifacts\mvdfrm\UnityEngine.TerrainModule.dll_C20F341DDE39EF9C.mvfrm
Library\Bee\artifacts\mvdfrm\UnityEngine.TerrainPhysicsModule.dll_CF7FD5F41F51ECEF.mvfrm
Library\Bee\artifacts\mvdfrm\UnityEngine.TextCoreFontEngineModule.dll_1F19D6A33FFA13BA.mvfrm
Library\Bee\artifacts\mvdfrm\UnityEngine.TextCoreTextEngineModule.dll_67020D14CF7DCCD8.mvfrm
Library\Bee\artifacts\mvdfrm\UnityEngine.TextRenderingModule.dll_6AE474E124B49B86.mvfrm
Library\Bee\artifacts\mvdfrm\UnityEngine.TilemapModule.dll_610B9B9EF5F6D0A5.mvfrm
Library\Bee\artifacts\mvdfrm\UnityEngine.TLSModule.dll_83CA69829DDF9C02.mvfrm
Library\Bee\artifacts\mvdfrm\UnityEngine.UIElementsModule.dll_C53B422A0A75F378.mvfrm
Library\Bee\artifacts\mvdfrm\UnityEngine.UIElementsNativeModule.dll_32ABADF22AC21CCF.mvfrm
Library\Bee\artifacts\mvdfrm\UnityEngine.UIModule.dll_4DFD116A03662671.mvfrm
Library\Bee\artifacts\mvdfrm\UnityEngine.UmbraModule.dll_038208D982004DB0.mvfrm
Library\Bee\artifacts\mvdfrm\UnityEngine.UNETModule.dll_7BEDB93ADB7EDB35.mvfrm
Library\Bee\artifacts\mvdfrm\UnityEngine.UnityAnalyticsCommonModule.dll_4B67168B38CCD4D9.mvfrm
Library\Bee\artifacts\mvdfrm\UnityEngine.UnityAnalyticsModule.dll_EEA49DEAB236445E.mvfrm
Library\Bee\artifacts\mvdfrm\UnityEngine.UnityConnectModule.dll_72CAA9D56C4B7272.mvfrm
Library\Bee\artifacts\mvdfrm\UnityEngine.UnityCurlModule.dll_C96DB0971BE6ADF8.mvfrm
Library\Bee\artifacts\mvdfrm\UnityEngine.UnityTestProtocolModule.dll_A59148607E29BE66.mvfrm
Library\Bee\artifacts\mvdfrm\UnityEngine.UnityWebRequestAssetBundleModule.dll_50344D11CA3B7DAF.mvfrm
Library\Bee\artifacts\mvdfrm\UnityEngine.UnityWebRequestAudioModule.dll_2824AD25A54F0113.mvfrm
Library\Bee\artifacts\mvdfrm\UnityEngine.UnityWebRequestModule.dll_6B305BE6CF22CEF7.mvfrm
Library\Bee\artifacts\mvdfrm\UnityEngine.UnityWebRequestTextureModule.dll_EB3F6151168FC748.mvfrm
Library\Bee\artifacts\mvdfrm\UnityEngine.UnityWebRequestWWWModule.dll_31C45270BF3D8944.mvfrm
Library\Bee\artifacts\mvdfrm\UnityEngine.VehiclesModule.dll_6BE2F84746A19274.mvfrm
Library\Bee\artifacts\mvdfrm\UnityEngine.VFXModule.dll_04A901F1744D056F.mvfrm
Library\Bee\artifacts\mvdfrm\UnityEngine.VideoModule.dll_ADB6E12BB76BBDE2.mvfrm
Library\Bee\artifacts\mvdfrm\UnityEngine.VRModule.dll_A0CF37EFA520ABE9.mvfrm
Library\Bee\artifacts\mvdfrm\UnityEngine.WindModule.dll_5F964C7A1FA66425.mvfrm
Library\Bee\artifacts\mvdfrm\UnityEngine.XRModule.dll_D38DFAF42E5AF947.mvfrm
Library\Bee\artifacts\mvdfrm\Unity.Android.Gradle.dll_1AC8639E7AAF0CF9.mvfrm
Library\Bee\artifacts\mvdfrm\Unity.Android.Types.dll_83698B4A521DF653.mvfrm
Library\Bee\artifacts\mvdfrm\Unity.Burst.Cecil.dll_259BD9E99B92496A.mvfrm
Library\Bee\artifacts\mvdfrm\Unity.Burst.Cecil.Mdb.dll_F98B99F2D7CF9727.mvfrm
Library\Bee\artifacts\mvdfrm\Unity.Burst.Cecil.Pdb.dll_10DE1262568498AA.mvfrm
Library\Bee\artifacts\mvdfrm\Unity.Burst.Cecil.Rocks.dll_EE9A873F5019320A.mvfrm
Library\Bee\artifacts\mvdfrm\Unity.VisualScripting.Antlr3.Runtime.dll_218A8184E6DE3226.mvfrm