%YAML 1.1
%TAG !u! tag:unity3d.com,2011:
--- !u!221 &22100000
AnimatorOverrideController:
  m_ObjectHideFlags: 0
  m_CorrespondingSourceObject: {fileID: 0}
  m_PrefabInstance: {fileID: 0}
  m_PrefabAsset: {fileID: 0}
  m_Name: AcPlayer3
  m_Controller: {fileID: 9100000, guid: c344161989eaeb84bb1056fd85ee9bed, type: 2}
  m_Clips:
  - m_OriginalClip: {fileID: 7400000, guid: 56808bea05fdb554fb8378aca509c9b2, type: 2}
    m_OverrideClip: {fileID: 7400000, guid: cdc02f5da7939554383c1aac6cd3804e, type: 2}
  - m_OriginalClip: {fileID: 7400000, guid: 2f941cb1b6f9e4c48a13e5220f050aa8, type: 2}
    m_OverrideClip: {fileID: 7400000, guid: 91434d82418c27340828c9dae8877733, type: 2}
  - m_OriginalClip: {fileID: 7400000, guid: 0425de05aad72e24a9f61514397de016, type: 2}
    m_OverrideClip: {fileID: 7400000, guid: 87a5d754253d9474b9d40926bcdc449a, type: 2}
